{
    "name": "Rendering",
    "rootNamespace": "",
    "references": [
        "Unity.Entities",
        "Unity.Jobs",
        "Unity.Burst",
        "Unity.Mathematics",
        "Unity.Transforms",
        "Unity.Collections",
        "Unity.Entities.Hybrid",
        "Unity.Transforms.Hybrid"
    ],
    "includePlatforms": [],
    "excludePlatforms": [],
    "allowUnsafeCode": true,
    "overrideReferences": false,
    "precompiledReferences": [],
    "autoReferenced": true,
    "defineConstraints": [],
    "versionDefines": [],
    "noEngineReferences": false
}